<?xml version="1.0" encoding="UTF-8" standalone="no"?>
<svg
   xmlns:dc="http://purl.org/dc/elements/1.1/"
   xmlns:cc="http://creativecommons.org/ns#"
   xmlns:rdf="http://www.w3.org/1999/02/22-rdf-syntax-ns#"
   xmlns:svg="http://www.w3.org/2000/svg"
   xmlns="http://www.w3.org/2000/svg"
   xmlns:sodipodi="http://sodipodi.sourceforge.net/DTD/sodipodi-0.dtd"
   xmlns:inkscape="http://www.inkscape.org/namespaces/inkscape"
   width="24"
   height="92"
   viewBox="0 0 24 92"
   version="1.1"
   id="svg919"
   sodipodi:docname="route_dots.svg"
   inkscape:version="0.92.2 (5c3e80d, 2017-08-06)">
  <metadata
     id="metadata925">
    <rdf:RDF>
      <cc:Work
         rdf:about="">
        <dc:format>image/svg+xml</dc:format>
        <dc:type
           rdf:resource="http://purl.org/dc/dcmitype/StillImage" />
        <dc:title></dc:title>
      </cc:Work>
    </rdf:RDF>
  </metadata>
  <defs
     id="defs923" />
  <sodipodi:namedview
     pagecolor="#ffffff"
     bordercolor="#666666"
     borderopacity="1"
     objecttolerance="10"
     gridtolerance="10"
     guidetolerance="10"
     inkscape:pageopacity="0"
     inkscape:pageshadow="2"
     inkscape:window-width="1188"
     inkscape:window-height="857"
     id="namedview921"
     showgrid="true"
     inkscape:zoom="3.4766083"
     inkscape:cx="-15.877738"
     inkscape:cy="1.7223115"
     inkscape:window-x="565"
     inkscape:window-y="302"
     inkscape:window-maximized="0"
     inkscape:current-layer="svg919">
    <inkscape:grid
       type="xygrid"
       id="grid5730"
       empspacing="6" />
  </sodipodi:namedview>
  <path
     d="m 10,68 c -3.87,0 -7,3.13 -7,7 0,5.25 7,13 7,13 0,0 7,-7.75 7,-13 0,-3.87 -3.13,-7 -7,-7 z m 0,9.5 c -1.38,0 -2.5,-1.12 -2.5,-2.5 0,-1.38 1.12,-2.5 2.5,-2.5 1.38,0 2.5,1.12 2.5,2.5 0,1.38 -1.12,2.5 -2.5,2.5 z"
     id="path917"
     inkscape:connector-curvature="0"
     style="stroke:none;stroke-opacity:1;fill:#aaaaaa;fill-opacity:1" />
  <circle
     style="fill:#aaaaaa;fill-opacity:1;stroke:none;stroke-width:3.77952766;stroke-miterlimit:4;stroke-dasharray:none;stroke-opacity:1"
     id="path5732"
     cx="10"
     cy="15"
     r="7" />
  <circle
     style="fill:#aaaaaa;fill-opacity:1;stroke:none;stroke-width:3.77952766;stroke-miterlimit:4;stroke-dasharray:none;stroke-opacity:1"
     id="path5734"
     cx="10"
     cy="35"
     r="3" />
  <circle
     r="3"
     cy="55"
     cx="10"
     id="circle5736"
     style="fill:#aaaaaa;fill-opacity:1;stroke:none;stroke-width:3.77952766;stroke-miterlimit:4;stroke-dasharray:none;stroke-opacity:1" />
</svg>
